<?xml version="1.0" encoding="UTF-8"?>
<svg width="200px" height="170px" viewBox="0 0 200 170" version="1.1" xmlns="http://www.w3.org/2000/svg" xmlns:xlink="http://www.w3.org/1999/xlink">
    <!-- Generator: Sketch 49.2 (51160) - http://www.bohemiancoding.com/sketch -->
    <title>Heat map</title>
    <desc>Created with Sketch.</desc>
    <defs>
        <rect id="path-1" x="0" y="0" width="200" height="170" rx="4"></rect>
    </defs>
    <g id="Heat-map" stroke="none" stroke-width="1" fill="none" fill-rule="evenodd">
        <path d="M-28,43 L125,43 C127.209139,43 129,44.790861 129,47 L129,128 L-32,128 L-32,47 C-32,44.790861 -30.209139,43 -28,43 Z" id="Rectangle-2" fill="#76C5FB" transform="translate(48.500000, 85.500000) rotate(-90.000000) translate(-48.500000, -85.500000) "></path>
        <polygon id="Rectangle-2-Copy" fill="#76C5FB" transform="translate(143.500000, 43.000000) rotate(-90.000000) translate(-143.500000, -43.000000) " points="105.5 -7.5 181.5 -7.5 181.5 93.5 105.5 93.5"></polygon>
        <polygon id="Rectangle-2-Copy-2" fill="#83E7F8" transform="translate(143.500000, 104.500000) rotate(-90.000000) translate(-143.500000, -104.500000) " points="122 54 165 54 165 155 122 155"></polygon>
        <rect id="Rectangle-2-Copy-3" fill="#83E7F8" transform="translate(122.500000, 147.000000) rotate(-90.000000) translate(-122.500000, -147.000000) " x="103.5" y="117.5" width="38" height="59"></rect>
        <rect id="Rectangle-2-Copy-4" fill="#83E7F8" transform="translate(174.042425, 147.000000) rotate(-90.000000) translate(-174.042425, -147.000000) " x="155.042425" y="126.957575" width="38" height="40.0848509"></rect>
        <text id="A" opacity="0.5" font-family="SourceSansPro-SemiBold, Source Sans Pro" font-size="14" font-weight="500" letter-spacing="0.5" fill="#000000">
            <tspan x="12" y="22">A</tspan>
        </text>
        <text id="B" opacity="0.5" font-family="SourceSansPro-SemiBold, Source Sans Pro" font-size="14" font-weight="500" letter-spacing="0.5" fill="#000000">
            <tspan x="99" y="22">B</tspan>
        </text>
        <text id="C" opacity="0.5" font-family="SourceSansPro-SemiBold, Source Sans Pro" font-size="14" font-weight="500" letter-spacing="0.5" fill="#000000">
            <tspan x="99" y="100">C</tspan>
        </text>
        <text id="D" opacity="0.5" font-family="SourceSansPro-SemiBold, Source Sans Pro" font-size="14" font-weight="500" letter-spacing="0.5" fill="#000000">
            <tspan x="99" y="145">D</tspan>
        </text>
        <text id="E" opacity="0.5" font-family="SourceSansPro-SemiBold, Source Sans Pro" font-size="14" font-weight="500" letter-spacing="0.5" fill="#000000">
            <tspan x="160" y="145">E</tspan>
        </text>
        <g id="Rectangle-7" opacity="0.300000012">
            <use fill="#FFFFFF" fill-rule="evenodd" xlink:href="#path-1"></use>
            <rect stroke-opacity="0.4" stroke="#1B1E39" stroke-width="2" x="1" y="1" width="198" height="168" rx="4"></rect>
        </g>
    </g>
</svg>