<?xml version="1.0" encoding="UTF-8"?>
<svg width="40px" height="40px" viewBox="0 0 40 40" version="1.1" xmlns="http://www.w3.org/2000/svg" xmlns:xlink="http://www.w3.org/1999/xlink">
    <!-- Generator: Sketch 49.2 (51160) - http://www.bohemiancoding.com/sketch -->
    <title>ic_partner_green</title>
    <desc>Created with Sketch.</desc>
    <defs></defs>
    <g id="ic_partner_green" stroke="none" stroke-width="1" fill="none" fill-rule="evenodd">
        <rect id="Rectangle-8" fill="#8CCB58" x="0" y="0" width="40" height="40" rx="10"></rect>
        <text id="P" font-family="SourceSansPro-Bold, Source Sans Pro" font-size="30" font-weight="bold" fill="#FFFFFF">
            <tspan x="11" y="30">P</tspan>
        </text>
    </g>
</svg>