<?xml version="1.0" encoding="UTF-8"?>
<svg width="40px" height="40px" viewBox="0 0 40 40" version="1.1" xmlns="http://www.w3.org/2000/svg" xmlns:xlink="http://www.w3.org/1999/xlink">
    <!-- Generator: Sketch 49.2 (51160) - http://www.bohemiancoding.com/sketch -->
    <title>ic_suborg_red</title>
    <desc>Created with Sketch.</desc>
    <defs></defs>
    <g id="ic_suborg_red" stroke="none" stroke-width="1" fill="none" fill-rule="evenodd">
        <circle id="Oval-Copy-2" fill="#E9455B" cx="20" cy="20" r="20"></circle>
        <text id="S" font-family="SourceSansPro-Bold, Source Sans Pro" font-size="30" font-weight="bold" fill="#FFFFFF">
            <tspan x="12" y="30">S</tspan>
        </text>
    </g>
</svg>